%YAML 1.1
%TAG !u! tag:unity3d.com,2011:
--- !u!21 &2140474
Material:
  serializedVersion: 8
  m_ObjectHideFlags: 0
  m_CorrespondingSourceObject: {fileID: 0}
  m_PrefabInstance: {fileID: 0}
  m_PrefabAsset: {fileID: 0}
  m_Name: Anton SDF Material
  m_Shader: {fileID: 4800000, guid: fe393ace9b354375a9cb14cdbbc28be4, type: 3}
  m_ValidKeywords:
  - UNDERLAY_ON
  m_InvalidKeywords: []
  m_LightmapFlags: 5
  m_EnableInstancingVariants: 0
  m_DoubleSidedGI: 0
  m_CustomRenderQueue: -1
  stringTagMap: {}
  disabledShaderPasses: []
  m_SavedProperties:
    serializedVersion: 3
    m_TexEnvs:
    - _BumpMap:
        m_Texture: {fileID: 0}
        m_Scale: {x: 1, y: 1}
        m_Offset: {x: 0, y: 0}
    - _Cube:
        m_Texture: {fileID: 0}
        m_Scale: {x: 1, y: 1}
        m_Offset: {x: 0, y: 0}
    - _FaceTex:
        m_Texture: {fileID: 0}
        m_Scale: {x: 1, y: 1}
        m_Offset: {x: 0, y: 0}
    - _MainTex:
        m_Texture: {fileID: 28933816116536082}
        m_Scale: {x: 1, y: 1}
        m_Offset: {x: 0, y: 0}
    - _OutlineTex:
        m_Texture: {fileID: 0}
        m_Scale: {x: 1, y: 1}
        m_Offset: {x: 0, y: 0}
    m_Ints: []
    m_Floats:
    - _Ambient: 0.5
    - _Bevel: 0.5
    - _BevelClamp: 0
    - _BevelOffset: 0
    - _BevelRoundness: 0
    - _BevelWidth: 0
    - _BumpFace: 0
    - _BumpOutline: 0
    - _ColorMask: 15
    - _CullMode: 0
    - _Diffuse: 0.5
    - _FaceDilate: 0
    - _FaceUVSpeedX: 0
    - _FaceUVSpeedY: 0
    - _GlowInner: 0.05
    - _GlowOffset: 0
    - _GlowOuter: 0.05
    - _GlowPower: 0.75
    - _GradientScale: 10
    - _LightAngle: 3.1416
    - _MaskSoftnessX: 0
    - _MaskSoftnessY: 0
    - _OutlineSoftness: 0
    - _OutlineUVSpeedX: 0
    - _OutlineUVSpeedY: 0
    - _OutlineWidth: 0
    - _PerspectiveFilter: 0.875
    - _Reflectivity: 10
    - _ScaleRatioA: 0.9
    - _ScaleRatioB: 0.6770833
    - _ScaleRatioC: 0.24375
    - _ScaleX: 1
    - _ScaleY: 1
    - _ShaderFlags: 0
    - _Sharpness: 0
    - _SpecularPower: 2
    - _Stencil: 0
    - _StencilComp: 8
    - _StencilOp: 0
    - _StencilReadMask: 255
    - _StencilWriteMask: 255
    - _TextureHeight: 1024
    - _TextureWidth: 1024
    - _UnderlayDilate: 1
    - _UnderlayOffsetX: -1
    - _UnderlayOffsetY: -0
    - _UnderlaySoftness: 1
    - _VertexOffsetX: 0
    - _VertexOffsetY: 0
    - _WeightBold: 0.75
    - _WeightNormal: 0
    m_Colors:
    - _ClipRect: {r: -32767, g: -32767, b: 32767, a: 32767}
    - _EnvMatrixRotation: {r: 0, g: 0, b: 0, a: 0}
    - _FaceColor: {r: 1, g: 1, b: 1, a: 1}
    - _GlowColor: {r: 0, g: 1, b: 0, a: 0.5}
    - _MaskCoord: {r: 0, g: 0, b: 32767, a: 32767}
    - _OutlineColor: {r: 0, g: 0, b: 0, a: 1}
    - _ReflectFaceColor: {r: 0, g: 0, b: 0, a: 1}
    - _ReflectOutlineColor: {r: 0, g: 0, b: 0, a: 1}
    - _SpecularColor: {r: 1, g: 1, b: 1, a: 1}
    - _UnderlayColor: {r: 0, g: 0, b: 0, a: 0.5}
  m_BuildTextureStacks: []
--- !u!114 &11400000
MonoBehaviour:
  m_ObjectHideFlags: 0
  m_CorrespondingSourceObject: {fileID: 0}
  m_PrefabInstance: {fileID: 0}
  m_PrefabAsset: {fileID: 0}
  m_GameObject: {fileID: 0}
  m_Enabled: 1
  m_EditorHideFlags: 0
  m_Script: {fileID: 11500000, guid: 71c1514a6bd24e1e882cebbe1904ce04, type: 3}
  m_Name: Anton SDF
  m_EditorClassIdentifier: 
  hashCode: -1153031989
  material: {fileID: 2140474}
  materialHashCode: -1064320757
  m_Version: 1.1.0
  m_SourceFontFileGUID: 997a43b767814dd0a7642ec9b78cba41
  m_SourceFontFile_EditorRef: {fileID: 12800000, guid: 997a43b767814dd0a7642ec9b78cba41,
    type: 3}
  m_SourceFontFile: {fileID: 12800000, guid: 997a43b767814dd0a7642ec9b78cba41, type: 3}
  m_AtlasPopulationMode: 1
  m_FaceInfo:
    m_FaceIndex: 0
    m_FamilyName: Anton
    m_StyleName: Regular
    m_PointSize: 90
    m_Scale: 1
    m_LineHeight: 132.05566
    m_AscentLine: 102.43652
    m_CapLine: 70
    m_MeanLine: 66
    m_Baseline: 0
    m_DescentLine: -29.61914
    m_SuperscriptOffset: 102.43652
    m_SuperscriptSize: 0.5
    m_SubscriptOffset: -29.61914
    m_SubscriptSize: 0.5
    m_UnderlineOffset: -13.491211
    m_UnderlineThickness: 4.482422
    m_StrikethroughOffset: 26.4
    m_StrikethroughThickness: 4.482422
    m_TabWidth: 21
  m_GlyphTable: []
  m_CharacterTable: []
  m_AtlasTextures:
  - {fileID: 28933816116536082}
  m_AtlasTextureIndex: 0
  m_IsMultiAtlasTexturesEnabled: 0
  m_ClearDynamicDataOnBuild: 1
  m_UsedGlyphRects: []
  m_FreeGlyphRects:
  - m_X: 0
    m_Y: 0
    m_Width: 1023
    m_Height: 1023
  m_fontInfo:
    Name: Anton
    PointSize: 73
    Scale: 1
    CharacterCount: 97
    LineHeight: 107.125
    Baseline: 0
    Ascender: 83.09375
    CapHeight: 56.8125
    Descender: -24.03125
    CenterLine: 0
    SuperscriptOffset: 83.09375
    SubscriptOffset: -10.942871
    SubSize: 0.5
    Underline: -10.942871
    UnderlineThickness: 3.6357422
    strikethrough: 22.725
    strikethroughThickness: 0
    TabWidth: 171.25
    Padding: 5
    AtlasWidth: 512
    AtlasHeight: 512
  atlas: {fileID: 0}
  m_AtlasWidth: 1024
  m_AtlasHeight: 1024
  m_AtlasPadding: 9
  m_AtlasRenderMode: 4165
  m_glyphInfoList: []
  m_KerningTable:
    kerningPairs: []
  m_FontFeatureTable:
    m_GlyphPairAdjustmentRecords: []
  fallbackFontAssets: []
  m_FallbackFontAssetTable: []
  m_CreationSettings:
    sourceFontFileName: 
    sourceFontFileGUID: 997a43b767814dd0a7642ec9b78cba41
    pointSizeSamplingMode: 1
    pointSize: 90
    padding: 9
    packingMode: 4
    atlasWidth: 1024
    atlasHeight: 1024
    characterSetSelectionMode: 6
    characterSequence: 
    referencedFontAssetGUID: 8a89fa14b10d46a99122fd4f73fca9a2
    referencedTextAssetGUID: 
    fontStyle: 0
    fontStyleModifier: 0
    renderMode: 4165
    includeFontFeatures: 0
  m_FontWeightTable:
  - regularTypeface: {fileID: 0}
    italicTypeface: {fileID: 0}
  - regularTypeface: {fileID: 0}
    italicTypeface: {fileID: 0}
  - regularTypeface: {fileID: 0}
    italicTypeface: {fileID: 0}
  - regularTypeface: {fileID: 0}
    italicTypeface: {fileID: 0}
  - regularTypeface: {fileID: 0}
    italicTypeface: {fileID: 0}
  - regularTypeface: {fileID: 0}
    italicTypeface: {fileID: 0}
  - regularTypeface: {fileID: 0}
    italicTypeface: {fileID: 0}
  - regularTypeface: {fileID: 0}
    italicTypeface: {fileID: 0}
  - regularTypeface: {fileID: 0}
    italicTypeface: {fileID: 0}
  - regularTypeface: {fileID: 0}
    italicTypeface: {fileID: 0}
  fontWeights:
  - regularTypeface: {fileID: 0}
    italicTypeface: {fileID: 0}
  - regularTypeface: {fileID: 0}
    italicTypeface: {fileID: 0}
  - regularTypeface: {fileID: 0}
    italicTypeface: {fileID: 0}
  - regularTypeface: {fileID: 0}
    italicTypeface: {fileID: 0}
  - regularTypeface: {fileID: 0}
    italicTypeface: {fileID: 0}
  - regularTypeface: {fileID: 0}
    italicTypeface: {fileID: 0}
  - regularTypeface: {fileID: 0}
    italicTypeface: {fileID: 0}
  - regularTypeface: {fileID: 0}
    italicTypeface: {fileID: 0}
  - regularTypeface: {fileID: 0}
    italicTypeface: {fileID: 0}
  - regularTypeface: {fileID: 0}
    italicTypeface: {fileID: 0}
  normalStyle: 0
  normalSpacingOffset: 0
  boldStyle: 0.75
  boldSpacing: 7
  italicStyle: 35
  tabSize: 10
--- !u!28 &28933816116536082
Texture2D:
  m_ObjectHideFlags: 0
  m_CorrespondingSourceObject: {fileID: 0}
  m_PrefabInstance: {fileID: 0}
  m_PrefabAsset: {fileID: 0}
  m_Name: Anton SDF Atlas
  m_ImageContentsHash:
    serializedVersion: 2
    Hash: 00000000000000000000000000000000
  m_ForcedFallbackFormat: 4
  m_DownscaleFallback: 0
  m_IsAlphaChannelOptional: 0
  serializedVersion: 2
  m_Width: 0
  m_Height: 0
  m_CompleteImageSize: 0
  m_MipsStripped: 0
  m_TextureFormat: 1
  m_MipCount: 1
  m_IsReadable: 1
  m_IsPreProcessed: 0
  m_IgnoreMasterTextureLimit: 0
  m_StreamingMipmaps: 0
  m_StreamingMipmapsPriority: 0
  m_VTOnly: 0
  m_AlphaIsTransparency: 0
  m_ImageCount: 1
  m_TextureDimension: 2
  m_TextureSettings:
    serializedVersion: 2
    m_FilterMode: 1
    m_Aniso: 1
    m_MipBias: 0
    m_WrapU: 0
    m_WrapV: 0
    m_WrapW: 0
  m_LightmapFormat: 0
  m_ColorSpace: 0
  m_PlatformBlob: 
  image data: 0
  _typelessdata: 
  m_StreamData:
    serializedVersion: 2
    offset: 0
    size: 0
    path: 
